INDEX VERSION 1.131+C:\Selenium\HappyTrip\.metadata\.plugins\org.eclipse.jdt.core
4062573866.index
3813497560.index
1654674800.index
3608585563.index
1290309337.index
2894307909.index
2075892729.index
4018314381.index
3752831144.index
1617432309.index
318715626.index
2725125150.index
3258180482.index
2912378299.index
2158896681.index
3255766074.index
134360950.index
2936195005.index
2816613229.index
4195655364.index
1686655237.index
1825598218.index
2633680677.index
3330083589.index
1660904717.index
3707884999.index
3145607036.index
4062329064.index
2224339278.index
2275862471.index
820198353.index
1953533488.index
2481527943.index
296201721.index
399813298.index
848638799.index
3576439456.index
215277447.index
4005617011.index
165141188.index
2617409016.index
189530877.index
2459833296.index
197789008.index
263518635.index
4077102373.index
1056031855.index
2863653161.index
1726154484.index
2301977469.index
3627084181.index
3982276604.index
370036454.index
1659800240.index
1299043572.index
1565090833.index
1780284861.index
2521792175.index
3320568915.index
543409727.index
3852744966.index
4105008887.index
597506462.index
2917696596.index
2818440911.index
1924480154.index
1054573396.index
1837464843.index
777680358.index
2795856803.index
3449055620.index
220759314.index
4071449492.index
803036577.index
